
<svg width="1710px" height="1800px" viewBox="0 0 1710 1800" version="1.1" xmlns="http://www.w3.org/2000/svg" xmlns:xlink="http://www.w3.org/1999/xlink">
    <defs>
        <linearGradient x1="50%" y1="0%" x2="50%" y2="98.2780612%" id="linearGradient-1">
            <stop stop-color="#FFFFFF" stop-opacity="0.184414629" offset="0%"></stop>
            <stop stop-color="#FFFFFF" offset="100%"></stop>
        </linearGradient>
        <linearGradient x1="50%" y1="0%" x2="50%" y2="98.2780612%" id="linearGradient-2">
            <stop stop-color="#FFFFFF" stop-opacity="0.184414629" offset="0%"></stop>
            <stop stop-color="#FFFFFF" offset="100%"></stop>
        </linearGradient>
        <linearGradient x1="50%" y1="0%" x2="50%" y2="98.2780612%" id="linearGradient-3">
            <stop stop-color="#FFFFFF" stop-opacity="0.184414629" offset="0%"></stop>
            <stop stop-color="#FFFFFF" offset="100%"></stop>
        </linearGradient>
        <linearGradient x1="50%" y1="0%" x2="50%" y2="98.2780612%" id="linearGradient-4">
            <stop stop-color="#F6F6F6" stop-opacity="0.315981658" offset="0%"></stop>
            <stop stop-color="#FEFEFE" offset="100%"></stop>
        </linearGradient>
        <filter x="-20.1%" y="-19.0%" width="140.1%" height="138.1%" filterUnits="objectBoundingBox" id="filter-5">
            <feGaussianBlur stdDeviation="30.1564223" in="SourceGraphic"></feGaussianBlur>
        </filter>
        <linearGradient x1="50%" y1="0%" x2="50%" y2="98.2780612%" id="linearGradient-6">
            <stop stop-color="#FFFFFF" stop-opacity="0.184414629" offset="0%"></stop>
            <stop stop-color="#FFFFFF" offset="100%"></stop>
        </linearGradient>
        <linearGradient x1="50%" y1="0%" x2="50%" y2="67.9361451%" id="linearGradient-7">
            <stop stop-color="#F6F6F6" stop-opacity="0.756397192" offset="0%"></stop>
            <stop stop-color="#FFFFFF" offset="100%"></stop>
        </linearGradient>
    </defs>
    <g id="页面1" stroke="none" stroke-width="1" fill="none" fill-rule="evenodd">
        <g id="screen2" transform="translate(-105.000000, -60.000000)">
            <g id="编组" transform="translate(105.000000, 60.000000)">
                <path d="M854.521127,1800 C382.584536,1800 6.39493386e-13,1428.70587 6.39493386e-13,970.686481 C6.39493386e-13,642.911097 219.563968,413.618289 480.352911,234.919559 C585.127598,163.125473 854.521127,0 854.521127,0 C854.521127,0 1118.2129,158.982929 1239.07743,239.914998 C1498.07741,413.343924 1709.05263,646.909463 1709.05263,970.686481 C1709.05263,1428.70587 1326.4681,1800 854.521127,1800 Z" id="Fill-1复制-2" fill-opacity="0.460000008" fill="url(#linearGradient-1)" opacity="0.495535714"></path>
                <path d="M854.680751,1500 C540.056357,1500 285,1252.47058 285,947.124321 C285,728.607398 431.375979,575.745526 605.235274,456.613039 C675.085066,408.750316 854.680751,300 854.680751,300 C854.680751,300 1030.47527,405.98862 1111.05162,459.943332 C1283.71828,575.562616 1424.36842,731.272975 1424.36842,947.124321 C1424.36842,1252.47058 1169.31206,1500 854.680751,1500 Z" id="Fill-1复制" fill-opacity="0.460000008" fill="url(#linearGradient-2)" opacity="0.801562"></path>
                <path d="M855.05047,1275 C658.410223,1275 499,1120.29411 499,929.452701 C499,792.879624 590.484987,697.340954 699.147046,622.883149 C742.803166,592.968947 855.05047,525 855.05047,525 C855.05047,525 964.922043,591.242887 1015.28226,624.964583 C1123.19892,697.226635 1211.10526,794.54561 1211.10526,929.452701 C1211.10526,1120.29411 1051.69504,1275 855.05047,1275 Z" id="Fill-1" fill-opacity="0.460000008" fill="url(#linearGradient-3)"></path>
                <path d="M854.498631,1148 C729.959808,1148 629,1050.01961 629,929.153377 C629,842.657095 686.940492,782.149271 755.759796,734.992661 C783.408672,716.047 854.498631,673 854.498631,673 C854.498631,673 924.08396,714.953829 955.978766,736.310902 C1024.32598,782.076869 1080,843.712219 1080,929.153377 C1080,1050.01961 979.040192,1148 854.498631,1148 Z" id="blur" fill-opacity="0.280000001" fill="url(#linearGradient-4)" filter="url(#filter-5)"></path>
                <path d="M854.498631,1126 C729.959808,1126 629,1028.01961 629,907.153377 C629,820.657095 686.940492,760.149271 755.759796,712.992661 C783.408672,694.047 854.498631,651 854.498631,651 C854.498631,651 924.08396,692.953829 955.978766,714.310902 C1024.32598,760.076869 1080,821.712219 1080,907.153377 C1080,1028.01961 979.040192,1126 854.498631,1126 Z" id="Fill-1" fill-opacity="0.460000008" fill="url(#linearGradient-6)"></path>
                <path d="M854.498631,1149 C729.959808,1149 629,1051.01961 629,930.153377 C629,843.657095 686.940492,783.149271 755.759796,735.992661 C783.408672,717.047 854.498631,674 854.498631,674 C854.498631,674 924.08396,715.953829 955.978766,737.310902 C1024.32598,783.076869 1080,844.712219 1080,930.153377 C1080,1051.01961 979.040192,1149 854.498631,1149 Z" id="Fill-1" fill="url(#linearGradient-7)"></path>
            </g>
        </g>
    </g>
</svg>
